Bayesian computation: MCMC methods
…
MCMC samples from a hand-made MH algorithm

# A tibble: 200,000 × 4
   Iteration Chain Parameter value
       <int> <int> <fct>     <dbl>
 1         1     1 mu        0.124
 2         2     1 mu        0.124
 3         3     1 mu        0.124
 4         4     1 mu        0.124
 5         5     1 mu        0.124
 6         6     1 mu        0.124
 7         7     1 mu        0.124
 8         8     1 mu        0.124
 9         9     1 mu        0.124
10        10     1 mu        0.124
# … with 199,990 more rows
…
